{
    "annotations": {
      "list": [
        {
          "builtIn": 1,
          "datasource": "-- Grafana --",
          "enable": true,
          "hide": true,
          "iconColor": "rgba(0, 211, 255, 1)",
          "name": "Annotations & Alerts",
          "type": "dashboard"
        }
      ]
    },
    "editable": true,
    "gnetId": null,
    "graphTooltip": 0,
    "id": 2,
    "iteration": 1629789117827,
    "links": [
      {
        "icon": "info",
        "tags": [],
        "targetBlank": true,
        "title": "Grafana Docs",
        "tooltip": "",
        "type": "link",
        "url": "https://grafana.com/docs/grafana/latest/"
      },
      {
        "icon": "info",
        "tags": [],
        "targetBlank": true,
        "title": "Prometheus Docs",
        "type": "link",
        "url": "http://prometheus.io/docs/introduction/overview/"
      }
    ],
    "panels": [
      {
        "cacheTimeout": null,
        "datasource": "Prometheus",
        "fieldConfig": {
          "defaults": {
            "color": {
              "mode": "thresholds"
            },
            "decimals": 1,
            "mappings": [
              {
                "options": {
                  "match": "null",
                  "result": {
                    "text": "N/A"
                  }
                },
                "type": "special"
              }
            ],
            "thresholds": {
              "mode": "absolute",
              "steps": [
                {
                  "color": "green",
                  "value": null
                },
                {
                  "color": "red",
                  "value": 80
                }
              ]
            },
            "unit": "s"
          },
          "overrides": []
        },
        "gridPos": {
          "h": 5,
          "w": 6,
          "x": 0,
          "y": 0
        },
        "id": 5,
        "interval": null,
        "links": [],
        "maxDataPoints": 100,
        "options": {
          "colorMode": "none",
          "graphMode": "none",
          "justifyMode": "auto",
          "orientation": "horizontal",
          "reduceOptions": {
            "calcs": [
              "lastNotNull"
            ],
            "fields": "",
            "values": false
          },
          "text": {},
          "textMode": "auto"
        },
        "pluginVersion": "8.0.3",
        "targets": [
          {
            "expr": "(time() - process_start_time_seconds{job=\"prometheus\", instance=~\"$node\"})",
            "intervalFactor": 2,
            "refId": "A"
          }
        ],
        "title": "Uptime",
        "type": "stat"
      },
      {
        "cacheTimeout": null,
        "datasource": "Prometheus",
        "fieldConfig": {
          "defaults": {
            "color": {
              "fixedColor": "rgb(31, 120, 193)",
              "mode": "fixed"
            },
            "mappings": [],
            "thresholds": {
              "mode": "absolute",
              "steps": [
                {
                  "color": "rgba(50, 172, 45, 0.97)",
                  "value": null
                },
                {
                  "color": "rgba(237, 129, 40, 0.89)",
                  "value": 1
                },
                {
                  "color": "rgba(245, 54, 54, 0.9)",
                  "value": 5
                }
              ]
            },
            "unit": "none"
          },
          "overrides": []
        },
        "gridPos": {
          "h": 5,
          "w": 6,
          "x": 6,
          "y": 0
        },
        "id": 6,
        "interval": null,
        "links": [],
        "maxDataPoints": 100,
        "options": {
          "colorMode": "none",
          "graphMode": "area",
          "justifyMode": "auto",
          "orientation": "horizontal",
          "reduceOptions": {
            "calcs": [
              "lastNotNull"
            ],
            "fields": "",
            "values": false
          },
          "text": {},
          "textMode": "auto"
        },
        "pluginVersion": "8.0.3",
        "targets": [
          {
            "expr": "prometheus_local_storage_memory_series{instance=~\"$node\"}",
            "intervalFactor": 2,
            "refId": "A"
          }
        ],
        "title": "Local Storage Memory Series",
        "type": "stat"
      },
      {
        "cacheTimeout": null,
        "datasource": "Prometheus",
        "fieldConfig": {
          "defaults": {
            "color": {
              "mode": "thresholds"
            },
            "mappings": [
              {
                "options": {
                  "0": {
                    "text": "Empty"
                  }
                },
                "type": "value"
              }
            ],
            "thresholds": {
              "mode": "absolute",
              "steps": [
                {
                  "color": "rgba(50, 172, 45, 0.97)",
                  "value": null
                },
                {
                  "color": "rgba(237, 129, 40, 0.89)",
                  "value": 500
                },
                {
                  "color": "rgba(245, 54, 54, 0.9)",
                  "value": 4000
                }
              ]
            },
            "unit": "none"
          },
          "overrides": []
        },
        "gridPos": {
          "h": 5,
          "w": 6,
          "x": 12,
          "y": 0
        },
        "id": 7,
        "interval": null,
        "links": [],
        "maxDataPoints": 100,
        "options": {
          "colorMode": "value",
          "graphMode": "area",
          "justifyMode": "auto",
          "orientation": "horizontal",
          "reduceOptions": {
            "calcs": [
              "lastNotNull"
            ],
            "fields": "",
            "values": false
          },
          "text": {},
          "textMode": "auto"
        },
        "pluginVersion": "8.0.3",
        "targets": [
          {
            "expr": "prometheus_local_storage_indexing_queue_length{instance=~\"$node\"}",
            "intervalFactor": 2,
            "refId": "A"
          }
        ],
        "title": "Internal Storage Queue Length",
        "type": "stat"
      },
      {
        "datasource": null,
        "editable": true,
        "error": false,
        "gridPos": {
          "h": 5,
          "w": 6,
          "x": 18,
          "y": 0
        },
        "id": 9,
        "links": [],
        "options": {
          "content": "<span style=\"font-family: 'Open Sans', 'Helvetica Neue', Helvetica; font-size: 25px;vertical-align: text-top;color: #bbbfc2;margin-left: 10px;\">Prometheus</span>\n\n<p style=\"margin-top: 10px;\">You're using Prometheus, an open-source systems monitoring and alerting toolkit originally built at SoundCloud. For more information, check out the <a href=\"https://grafana.com/\">Grafana</a> and <a href=\"http://prometheus.io/\">Prometheus</a> projects.</p>",
          "mode": "html"
        },
        "pluginVersion": "8.0.3",
        "style": {},
        "transparent": true,
        "type": "text"
      },
      {
        "aliasColors": {
          "prometheus": "#C15C17",
          "{instance=\"localhost:9090\",job=\"prometheus\"}": "#C15C17"
        },
        "bars": false,
        "dashLength": 10,
        "dashes": false,
        "datasource": "Prometheus",
        "editable": true,
        "error": false,
        "fieldConfig": {
          "defaults": {
            "links": []
          },
          "overrides": []
        },
        "fill": 1,
        "fillGradient": 0,
        "grid": {},
        "gridPos": {
          "h": 6,
          "w": 18,
          "x": 0,
          "y": 5
        },
        "hiddenSeries": false,
        "id": 3,
        "legend": {
          "avg": false,
          "current": false,
          "max": false,
          "min": false,
          "show": true,
          "total": false,
          "values": false
        },
        "lines": true,
        "linewidth": 2,
        "links": [],
        "nullPointMode": "connected",
        "options": {
          "alertThreshold": true
        },
        "percentage": false,
        "pluginVersion": "8.0.3",
        "pointradius": 2,
        "points": false,
        "renderer": "flot",
        "seriesOverrides": [],
        "spaceLength": 10,
        "stack": false,
        "steppedLine": false,
        "targets": [
          {
            "expr": "rate(prometheus_local_storage_ingested_samples_total{instance=~\"$node\"}[5m])",
            "interval": "",
            "intervalFactor": 2,
            "legendFormat": "{{job}}",
            "metric": "",
            "refId": "A"
          }
        ],
        "thresholds": [],
        "timeFrom": null,
        "timeRegions": [],
        "timeShift": null,
        "title": "Samples ingested (rate-5m)",
        "tooltip": {
          "shared": true,
          "sort": 0,
          "value_type": "cumulative"
        },
        "type": "graph",
        "xaxis": {
          "buckets": null,
          "mode": "time",
          "name": null,
          "show": true,
          "values": []
        },
        "yaxes": [
          {
            "format": "short",
            "logBase": 1,
            "max": null,
            "min": null,
            "show": true
          },
          {
            "format": "short",
            "logBase": 1,
            "max": null,
            "min": null,
            "show": true
          }
        ],
        "yaxis": {
          "align": false,
          "alignLevel": null
        }
      },
      {
        "datasource": null,
        "editable": true,
        "error": false,
        "gridPos": {
          "h": 6,
          "w": 4,
          "x": 18,
          "y": 5
        },
        "id": 8,
        "links": [],
        "options": {
          "content": "#### Samples Ingested\nThis graph displays the count of samples ingested by the Prometheus server, as measured over the last 5 minutes, per time series in the range vector. When troubleshooting an issue on IRC or GitHub, this is often the first stat requested by the Prometheus team. ",
          "mode": "markdown"
        },
        "pluginVersion": "8.0.3",
        "style": {},
        "transparent": true,
        "type": "text"
      },
      {
        "aliasColors": {
          "prometheus": "#F9BA8F",
          "{instance=\"localhost:9090\",interval=\"5s\",job=\"prometheus\"}": "#F9BA8F"
        },
        "bars": false,
        "dashLength": 10,
        "dashes": false,
        "datasource": "Prometheus",
        "editable": true,
        "error": false,
        "fieldConfig": {
          "defaults": {
            "links": []
          },
          "overrides": []
        },
        "fill": 1,
        "fillGradient": 0,
        "grid": {},
        "gridPos": {
          "h": 7,
          "w": 10,
          "x": 0,
          "y": 11
        },
        "hiddenSeries": false,
        "id": 2,
        "legend": {
          "avg": false,
          "current": false,
          "max": false,
          "min": false,
          "show": true,
          "total": false,
          "values": false
        },
        "lines": true,
        "linewidth": 2,
        "links": [],
        "nullPointMode": "connected",
        "options": {
          "alertThreshold": true
        },
        "percentage": false,
        "pluginVersion": "8.0.3",
        "pointradius": 5,
        "points": false,
        "renderer": "flot",
        "seriesOverrides": [],
        "spaceLength": 10,
        "stack": false,
        "steppedLine": false,
        "targets": [
          {
            "expr": "rate(prometheus_target_interval_length_seconds_count{instance=~\"$node\"}[5m])",
            "intervalFactor": 2,
            "legendFormat": "{{job}}",
            "refId": "A"
          }
        ],
        "thresholds": [],
        "timeFrom": null,
        "timeRegions": [],
        "timeShift": null,
        "title": "Target Scrapes (last 5m)",
        "tooltip": {
          "shared": true,
          "sort": 0,
          "value_type": "cumulative"
        },
        "type": "graph",
        "xaxis": {
          "buckets": null,
          "mode": "time",
          "name": null,
          "show": true,
          "values": []
        },
        "yaxes": [
          {
            "format": "short",
            "logBase": 1,
            "max": null,
            "min": null,
            "show": true
          },
          {
            "format": "short",
            "logBase": 1,
            "max": null,
            "min": null,
            "show": true
          }
        ],
        "yaxis": {
          "align": false,
          "alignLevel": null
        }
      },
      {
        "aliasColors": {},
        "bars": false,
        "dashLength": 10,
        "dashes": false,
        "datasource": "Prometheus",
        "editable": true,
        "error": false,
        "fieldConfig": {
          "defaults": {
            "links": []
          },
          "overrides": []
        },
        "fill": 1,
        "fillGradient": 0,
        "grid": {},
        "gridPos": {
          "h": 7,
          "w": 8,
          "x": 10,
          "y": 11
        },
        "hiddenSeries": false,
        "id": 14,
        "legend": {
          "avg": false,
          "current": false,
          "max": false,
          "min": false,
          "show": true,
          "total": false,
          "values": false
        },
        "lines": true,
        "linewidth": 2,
        "links": [],
        "nullPointMode": "connected",
        "options": {
          "alertThreshold": true
        },
        "percentage": false,
        "pluginVersion": "8.0.3",
        "pointradius": 5,
        "points": false,
        "renderer": "flot",
        "seriesOverrides": [],
        "spaceLength": 10,
        "stack": false,
        "steppedLine": false,
        "targets": [
          {
            "expr": "prometheus_target_interval_length_seconds{quantile!=\"0.01\", quantile!=\"0.05\",instance=~\"$node\"}",
            "interval": "",
            "intervalFactor": 2,
            "legendFormat": "{{quantile}} ({{interval}})",
            "metric": "",
            "refId": "A"
          }
        ],
        "thresholds": [],
        "timeFrom": null,
        "timeRegions": [],
        "timeShift": null,
        "title": "Scrape Duration",
        "tooltip": {
          "shared": true,
          "sort": 0,
          "value_type": "cumulative"
        },
        "type": "graph",
        "xaxis": {
          "buckets": null,
          "mode": "time",
          "name": null,
          "show": true,
          "values": []
        },
        "yaxes": [
          {
            "format": "short",
            "logBase": 1,
            "max": null,
            "min": null,
            "show": true
          },
          {
            "format": "short",
            "logBase": 1,
            "max": null,
            "min": null,
            "show": true
          }
        ],
        "yaxis": {
          "align": false,
          "alignLevel": null
        }
      },
      {
        "datasource": null,
        "editable": true,
        "error": false,
        "gridPos": {
          "h": 7,
          "w": 6,
          "x": 18,
          "y": 11
        },
        "id": 11,
        "links": [],
        "options": {
          "content": "#### Scrapes\nPrometheus scrapes metrics from instrumented jobs, either directly or via an intermediary push gateway for short-lived jobs. Target scrapes will show how frequently targets are scraped, as measured over the last 5 minutes, per time series in the range vector. Scrape Duration will show how long the scrapes are taking, with percentiles available as series. ",
          "mode": "markdown"
        },
        "pluginVersion": "8.0.3",
        "style": {},
        "transparent": true,
        "type": "text"
      },
      {
        "aliasColors": {},
        "bars": false,
        "dashLength": 10,
        "dashes": false,
        "datasource": "Prometheus",
        "decimals": null,
        "editable": true,
        "error": false,
        "fieldConfig": {
          "defaults": {
            "links": []
          },
          "overrides": []
        },
        "fill": 1,
        "fillGradient": 0,
        "grid": {},
        "gridPos": {
          "h": 7,
          "w": 18,
          "x": 0,
          "y": 18
        },
        "hiddenSeries": false,
        "id": 12,
        "legend": {
          "alignAsTable": false,
          "avg": false,
          "current": false,
          "hideEmpty": true,
          "max": false,
          "min": false,
          "show": true,
          "total": false,
          "values": false
        },
        "lines": true,
        "linewidth": 2,
        "links": [],
        "nullPointMode": "connected",
        "options": {
          "alertThreshold": true
        },
        "percentage": false,
        "pluginVersion": "8.0.3",
        "pointradius": 5,
        "points": false,
        "renderer": "flot",
        "seriesOverrides": [],
        "spaceLength": 10,
        "stack": false,
        "steppedLine": false,
        "targets": [
          {
            "expr": "prometheus_evaluator_duration_seconds{quantile!=\"0.01\", quantile!=\"0.05\",instance=~\"$node\"}",
            "interval": "",
            "intervalFactor": 2,
            "legendFormat": "{{quantile}}",
            "refId": "A"
          }
        ],
        "thresholds": [],
        "timeFrom": null,
        "timeRegions": [],
        "timeShift": null,
        "title": "Rule Eval Duration",
        "tooltip": {
          "shared": true,
          "sort": 0,
          "value_type": "cumulative"
        },
        "type": "graph",
        "xaxis": {
          "buckets": null,
          "mode": "time",
          "name": null,
          "show": true,
          "values": []
        },
        "yaxes": [
          {
            "format": "percentunit",
            "label": "",
            "logBase": 1,
            "max": null,
            "min": null,
            "show": true
          },
          {
            "format": "short",
            "logBase": 1,
            "max": null,
            "min": null,
            "show": true
          }
        ],
        "yaxis": {
          "align": false,
          "alignLevel": null
        }
      },
      {
        "datasource": null,
        "editable": true,
        "error": false,
        "gridPos": {
          "h": 7,
          "w": 6,
          "x": 18,
          "y": 18
        },
        "id": 15,
        "links": [],
        "options": {
          "content": "#### Rule Evaluation Duration\nThis graph panel plots the duration for all evaluations to execute. The 50th percentile, 90th percentile and 99th percentile are shown as three separate series to help identify outliers that may be skewing the data.",
          "mode": "markdown"
        },
        "pluginVersion": "8.0.3",
        "style": {},
        "transparent": true,
        "type": "text"
      }
    ],
    "refresh": false,
    "revision": "1.0",
    "schemaVersion": 30,
    "style": "dark",
    "tags": [
      "prometheus"
    ],
    "templating": {
      "list": [
        {
          "allValue": null,
          "current": {
            "selected": false,
            "text": "prometheus:9090",
            "value": "prometheus:9090"
          },
          "datasource": "Prometheus",
          "definition": "",
          "description": null,
          "error": null,
          "hide": 0,
          "includeAll": false,
          "label": "HOST:",
          "multi": false,
          "name": "node",
          "options": [],
          "query": {
            "query": "label_values(prometheus_build_info, instance)",
            "refId": "Prometheus-node-Variable-Query"
          },
          "refresh": 1,
          "regex": "",
          "skipUrlSync": false,
          "sort": 1,
          "tagValuesQuery": "",
          "tagsQuery": "",
          "type": "query",
          "useTags": false
        }
      ]
    },
    "time": {
      "from": "now-5m",
      "to": "now"
    },
    "timepicker": {
      "now": true,
      "refresh_intervals": [
        "5s",
        "10s",
        "30s",
        "1m",
        "5m",
        "15m",
        "30m",
        "1h",
        "2h",
        "1d"
      ],
      "time_options": [
        "5m",
        "15m",
        "1h",
        "6h",
        "12h",
        "24h",
        "2d",
        "7d",
        "30d"
      ]
    },
    "timezone": "browser",
    "title": "Prometheus Stats",
    "uid": "KerHLAznk",
    "version": 1
  }